[gd_resource type="Environment" load_steps=2 format=2]

[sub_resource type="ProceduralSky" id=1]

[resource]
background_mode = 1
background_sky = SubResource( 1 )
background_color = Color( 0.168627, 0.168627, 0.168627, 1 )
