<?xml version="1.0" encoding="UTF-8" standalone="no"?>
<!-- Created with Inkscape (http://www.inkscape.org/) -->

<svg
   xmlns:dc="http://purl.org/dc/elements/1.1/"
   xmlns:cc="http://creativecommons.org/ns#"
   xmlns:rdf="http://www.w3.org/1999/02/22-rdf-syntax-ns#"
   xmlns:svg="http://www.w3.org/2000/svg"
   xmlns="http://www.w3.org/2000/svg"
   xmlns:xlink="http://www.w3.org/1999/xlink"
   xmlns:sodipodi="http://sodipodi.sourceforge.net/DTD/sodipodi-0.dtd"
   xmlns:inkscape="http://www.inkscape.org/namespaces/inkscape"
   width="210mm"
   height="297mm"
   viewBox="0 0 744.09448819 1052.3622047"
   id="svg2"
   version="1.1"
   inkscape:version="0.91 r13725"
   sodipodi:docname="graphical_id.svg">
  <defs
     id="defs4">
    <linearGradient
       inkscape:collect="always"
       id="linearGradient4247">
      <stop
         style="stop-color:#ff0098;stop-opacity:1"
         offset="0"
         id="stop4249" />
      <stop
         style="stop-color:#00cbff;stop-opacity:1"
         offset="1"
         id="stop4251" />
    </linearGradient>
    <linearGradient
       inkscape:collect="always"
       id="linearGradient4219">
      <stop
         style="stop-color:#ff007c;stop-opacity:1"
         offset="0"
         id="stop4221" />
      <stop
         style="stop-color:#0097f7;stop-opacity:1"
         offset="1"
         id="stop4223" />
    </linearGradient>
    <linearGradient
       inkscape:collect="always"
       id="linearGradient4201">
      <stop
         style="stop-color:#f400ff;stop-opacity:1"
         offset="0"
         id="stop4203" />
      <stop
         style="stop-color:#ff0000;stop-opacity:1"
         offset="1"
         id="stop4205" />
    </linearGradient>
    <linearGradient
       inkscape:collect="always"
       xlink:href="#linearGradient4201"
       id="linearGradient4207"
       x1="28.401333"
       y1="1021.2106"
       x2="34.588516"
       y2="993.55768"
       gradientUnits="userSpaceOnUse" />
    <linearGradient
       inkscape:collect="always"
       xlink:href="#linearGradient4219"
       id="linearGradient4225"
       x1="27.896255"
       y1="1043.8483"
       x2="33.514458"
       y2="1014.8063"
       gradientUnits="userSpaceOnUse" />
    <linearGradient
       inkscape:collect="always"
       xlink:href="#linearGradient4247"
       id="linearGradient4253"
       x1="-183.42247"
       y1="125.64838"
       x2="12.272726"
       y2="197.41682"
       gradientUnits="userSpaceOnUse" />
    <linearGradient
       inkscape:collect="always"
       xlink:href="#linearGradient4247"
       id="linearGradient4265"
       x1="51.92857"
       y1="1042.5942"
       x2="12.339283"
       y2="997.86218"
       gradientUnits="userSpaceOnUse" />
    <linearGradient
       inkscape:collect="always"
       xlink:href="#linearGradient4247"
       id="linearGradient4273"
       x1="12.464284"
       y1="998.57648"
       x2="48.500004"
       y2="1045.8979"
       gradientUnits="userSpaceOnUse" />
  </defs>
  <sodipodi:namedview
     id="base"
     pagecolor="#ffffff"
     bordercolor="#666666"
     borderopacity="1.0"
     inkscape:pageopacity="0.0"
     inkscape:pageshadow="2"
     inkscape:zoom="7.9195959"
     inkscape:cx="43.23061"
     inkscape:cy="20.831954"
     inkscape:document-units="px"
     inkscape:current-layer="layer1"
     showgrid="false"
     showborder="false"
     inkscape:window-width="1920"
     inkscape:window-height="1053"
     inkscape:window-x="0"
     inkscape:window-y="0"
     inkscape:window-maximized="1" />
  <metadata
     id="metadata7">
    <rdf:RDF>
      <cc:Work
         rdf:about="">
        <dc:format>image/svg+xml</dc:format>
        <dc:type
           rdf:resource="http://purl.org/dc/dcmitype/StillImage" />
        <dc:title></dc:title>
      </cc:Work>
    </rdf:RDF>
  </metadata>
  <g
     inkscape:label="Layer 1"
     inkscape:groupmode="layer"
     id="layer1">
    <rect
       style="color:#000000;clip-rule:nonzero;display:inline;overflow:visible;visibility:visible;opacity:1;isolation:auto;mix-blend-mode:normal;color-interpolation:sRGB;color-interpolation-filters:linearRGB;solid-color:#000000;solid-opacity:1;fill:#000000;fill-opacity:1;fill-rule:nonzero;stroke:none;stroke-width:1;stroke-linecap:square;stroke-linejoin:miter;stroke-miterlimit:4;stroke-dasharray:4, 4;stroke-dashoffset:0;stroke-opacity:1;color-rendering:auto;image-rendering:auto;shape-rendering:auto;text-rendering:auto;enable-background:accumulate"
       id="rect4188"
       width="64"
       height="64"
       x="0"
       y="988.36218"
       inkscape:export-xdpi="281.25"
       inkscape:export-ydpi="281.25" />
    <circle
       r="25.892859"
       cy="1020.3622"
       cx="32"
       id="circle4257"
       style="color:#000000;clip-rule:nonzero;display:inline;overflow:visible;visibility:visible;opacity:1;isolation:auto;mix-blend-mode:normal;color-interpolation:sRGB;color-interpolation-filters:linearRGB;solid-color:#000000;solid-opacity:1;fill:none;fill-opacity:1;fill-rule:nonzero;stroke:url(#linearGradient4273);stroke-width:0.5;stroke-linecap:square;stroke-linejoin:miter;stroke-miterlimit:4;stroke-dasharray:none;stroke-dashoffset:0;stroke-opacity:1;color-rendering:auto;image-rendering:auto;shape-rendering:auto;text-rendering:auto;enable-background:accumulate"
       inkscape:export-xdpi="281.25"
       inkscape:export-ydpi="281.25" />
    <ellipse
       style="color:#000000;clip-rule:nonzero;display:inline;overflow:visible;visibility:visible;opacity:1;isolation:auto;mix-blend-mode:normal;color-interpolation:sRGB;color-interpolation-filters:linearRGB;solid-color:#000000;solid-opacity:1;fill:none;fill-opacity:1;fill-rule:nonzero;stroke:url(#linearGradient4265);stroke-width:0.5;stroke-linecap:square;stroke-linejoin:miter;stroke-miterlimit:4;stroke-dasharray:none;stroke-dashoffset:0;stroke-opacity:1;color-rendering:auto;image-rendering:auto;shape-rendering:auto;text-rendering:auto;enable-background:accumulate"
       id="path4255"
       cx="32"
       cy="1020.3622"
       r="24.821428"
       inkscape:export-xdpi="281.25"
       inkscape:export-ydpi="281.25" />
    <circle
       style="color:#000000;clip-rule:nonzero;display:inline;overflow:visible;visibility:visible;opacity:1;isolation:auto;mix-blend-mode:normal;color-interpolation:sRGB;color-interpolation-filters:linearRGB;solid-color:#000000;solid-opacity:1;fill:url(#linearGradient4225);fill-opacity:1;fill-rule:nonzero;stroke:none;stroke-width:1;stroke-linecap:square;stroke-linejoin:miter;stroke-miterlimit:4;stroke-dasharray:4, 4;stroke-dashoffset:0;stroke-opacity:1;color-rendering:auto;image-rendering:auto;shape-rendering:auto;text-rendering:auto;enable-background:accumulate"
       id="path4196"
       cx="32"
       cy="1020.3622"
       r="24.054256"
       inkscape:export-xdpi="281.25"
       inkscape:export-ydpi="281.25" />
    <path
       style="color:#000000;clip-rule:nonzero;display:inline;overflow:visible;visibility:visible;opacity:1;isolation:auto;mix-blend-mode:normal;color-interpolation:sRGB;color-interpolation-filters:linearRGB;solid-color:#000000;solid-opacity:1;fill:url(#linearGradient4207);fill-opacity:1;fill-rule:nonzero;stroke:none;stroke-width:1;stroke-linecap:square;stroke-linejoin:miter;stroke-miterlimit:4;stroke-dasharray:4, 4;stroke-dashoffset:0;stroke-opacity:1;color-rendering:auto;image-rendering:auto;shape-rendering:auto;text-rendering:auto;enable-background:accumulate"
       d="m 56.054256,1020.3622 c -18.006757,13.5519 -32.847598,-17.5608 -48.1085124,0 C 7.9457359,1007.0774 18.715196,996.30793 32,996.30793 c 13.284804,0 24.054264,10.76947 24.054256,24.05427 z"
       id="circle4198"
       inkscape:connector-curvature="0"
       sodipodi:nodetypes="ccsc"
       inkscape:export-xdpi="281.25"
       inkscape:export-ydpi="281.25" />
    <flowRoot
       xml:space="preserve"
       id="flowRoot4136"
       style="font-style:normal;font-variant:normal;font-weight:normal;font-stretch:normal;font-size:40px;line-height:125%;font-family:GN-KMBFont-UB-NewstyleKanaA;-inkscape-font-specification:GN-KMBFont-UB-NewstyleKanaA;text-align:center;letter-spacing:0px;word-spacing:0px;text-anchor:middle;fill:#ffffff;fill-opacity:1;stroke:url(#linearGradient4253);stroke-width:2.02981481;stroke-linecap:butt;stroke-linejoin:miter;stroke-opacity:1;stroke-miterlimit:4;stroke-dasharray:none"
       transform="matrix(0.24632789,0,0,0.24632789,53.79376,981.37578)"
       inkscape:export-xdpi="281.25"
       inkscape:export-ydpi="281.25"><flowRegion
         id="flowRegion4138"
         style="stroke:url(#linearGradient4253)"><rect
           id="rect4140"
           width="1840"
           height="937.14288"
           x="-1008.5714"
           y="112.36221"
           style="font-style:normal;font-variant:normal;font-weight:normal;font-stretch:normal;font-family:GN-KMBFont-UB-NewstyleKanaA;-inkscape-font-specification:GN-KMBFont-UB-NewstyleKanaA;text-align:center;text-anchor:middle;fill:#ffffff;fill-opacity:1;stroke:url(#linearGradient4253);stroke-opacity:1;stroke-width:2.02981481;stroke-miterlimit:4;stroke-dasharray:none" /></flowRegion><flowPara
         id="flowPara4142"
         style="font-style:normal;font-variant:normal;font-weight:normal;font-stretch:normal;font-family:GN-KMBFont-UB-NewstyleKanaA;-inkscape-font-specification:GN-KMBFont-UB-NewstyleKanaA;fill:#ffffff;fill-opacity:1;stroke:url(#linearGradient4253);stroke-opacity:1;stroke-width:2.02981481;stroke-miterlimit:4;stroke-dasharray:none">STREAM</flowPara><flowPara
         style="font-style:normal;font-variant:normal;font-weight:normal;font-stretch:normal;font-family:GN-KMBFont-UB-NewstyleKanaA;-inkscape-font-specification:GN-KMBFont-UB-NewstyleKanaA;fill:#ffffff;fill-opacity:1;stroke:url(#linearGradient4253);stroke-opacity:1;stroke-width:2.02981481;stroke-miterlimit:4;stroke-dasharray:none"
         id="flowPara4146">DREAM</flowPara></flowRoot>  </g>
</svg>
